<?xml version="1.0" encoding="UTF-8" standalone="no"?>
<svg
   xmlns:dc="http://purl.org/dc/elements/1.1/"
   xmlns:cc="http://creativecommons.org/ns#"
   xmlns:rdf="http://www.w3.org/1999/02/22-rdf-syntax-ns#"
   xmlns:svg="http://www.w3.org/2000/svg"
   xmlns="http://www.w3.org/2000/svg"
   xmlns:xlink="http://www.w3.org/1999/xlink"
   xmlns:sodipodi="http://sodipodi.sourceforge.net/DTD/sodipodi-0.dtd"
   xmlns:inkscape="http://www.inkscape.org/namespaces/inkscape"
   width="128"
   height="128"
   style="enable-background:new 0 0 128 128;"
   version="1.1"
   id="svg16"
   sodipodi:docname="icon_reloaded_white_offset (copy 1).svg"
   inkscape:version="0.92.1 r15371">
  <metadata
     id="metadata22">
    <rdf:RDF>
      <cc:Work
         rdf:about="">
        <dc:format>image/svg+xml</dc:format>
        <dc:type
           rdf:resource="http://purl.org/dc/dcmitype/StillImage" />
      </cc:Work>
    </rdf:RDF>
  </metadata>
  <defs
     id="defs20" />
  <sodipodi:namedview
     pagecolor="#ffffff"
     bordercolor="#666666"
     borderopacity="1"
     objecttolerance="10"
     gridtolerance="10"
     guidetolerance="10"
     inkscape:pageopacity="0"
     inkscape:pageshadow="2"
     inkscape:window-width="1366"
     inkscape:window-height="719"
     id="namedview18"
     showgrid="false"
     inkscape:zoom="3.6875001"
     inkscape:cx="-4.8025824"
     inkscape:cy="70.337442"
     inkscape:window-x="0"
     inkscape:window-y="25"
     inkscape:window-maximized="1"
     inkscape:current-layer="layer4"
     inkscape:snap-page="true"
     inkscape:snap-global="false" />
  <g
     id="g6" />
  <g
     inkscape:groupmode="layer"
     id="layer3"
     inkscape:label="circle"
     style="display:none">
    <circle
       style="fill:#4d4d4d;fill-opacity:1;stroke:none;stroke-width:3.40157485;stroke-miterlimit:4;stroke-dasharray:none;stroke-opacity:1;paint-order:normal"
       id="path4509"
       cx="64"
       cy="64"
       r="64" />
  </g>
  <g
     inkscape:groupmode="layer"
     id="layer1"
     inkscape:label="original"
     style="display:none"
     sodipodi:insensitive="true">
    <path
       style="fill:#000000;stroke-width:5.46327686"
       inkscape:connector-curvature="0"
       d="M 71.757063,9.0772336 17.124295,9.0226008 c -6.009605,0 -10.926554,4.9169492 -10.926554,10.9265532 v 98.338986 c 0,6.0096 4.916949,10.92655 10.926554,10.92655 h 54.632768 c 6.009604,0 10.926553,-4.91695 10.926553,-10.92655 V 19.949154 c 0,-6.009604 -4.916949,-10.8719204 -10.926553,-10.8719204 z m 0,98.2843464 H 17.124295 V 30.875708 h 54.632768 z"
       id="path4490" />
    <path
       d="m 80.578647,40.10426 c 1.03,-1.1 -0.2,-2.21 -0.2,-2.21 0,0 -19.58,-18.479995 -20.46,-19.679995 -1.23,-1.69 -3.16,-5.31 0.57,-8.93 1.55,-1.51 5,-3.97 10.56,0.6 1.2,0.99 31.540003,29.779995 33.180003,31.459995 0,0 12.94,13.3 17.81,21.35 1.35,2.23 2.78,4.74 3.78,7.67 1,2.92 1.69,6.22 1.69,9.7 0.04,3.48 -0.63,7.09 -1.88,10.5 -1.26,3.41 -3.09,6.59 -5.2,9.48 -0.54,0.71 -1.08,1.43 -1.66,2.1 l -1.6,1.94 c -1.13,1.34999 -2.32,2.60999 -3.53,3.81999 -2.42,2.43001 -5.01,4.62 -7.66,6.55 -2.66,1.92 -5.41,3.55 -8.150003,4.85001 -2.74,1.3 -5.49,2.21 -8.09,2.76 -2.59,0.58 -5.04,0.74 -7.18,0.65 -2.14,-0.02 -3.97,-0.45 -5.43,-0.79999 -1.46,-0.40001 -2.55,-0.83 -3.27,-1.17 -0.72,-0.33 -1.1,-0.51001 -1.1,-0.51001 v 0 c -1.29,-0.45999 -2.52,-0.9 -3.63,-1.29001 -3.13,-1.09999 -6.64,-2.37 -10.25,-3.68999 -1.53,-0.56001 -2.22,-0.82 -2.22,-0.82 l 0.03,0.01 c -13.17,-4.85 -26.74,-10.06 -26.74,-10.06 -2.389999,-0.79 -3.219999,-3.7 -1.679999,-5.84 4.439999,-6.18 10.919999,-8.07 17.829999,-5.89 l 15.32,5.59 c 1.71,0.79 3.69,-1.39 2.5,-2.85 -3.74,-4.59 -14.05,-14.3 -14.05,-14.3 -4.16,-4.34 -29.269999,-28.83 -30.799999,-30.47 -3.07,-3.3 -4.65,-7.46 -2.32,-10.63 2.38,-3.24 6.06,-4.14 10.08,-1.01 1.09,0.85 27.239999,25.6 27.239999,25.6 1.51,1.44 3.65,-0.26 2.18,-1.85 0,0 -32.119999,-30.79 -33.619999,-32.18 -3.42,-3.149995 -4.17,-8.209995 -1.35,-11.209995 2.75,-2.93 7.26,-2.86 10.799999,0.34 1.12,1.02 24.02,22.709995 33.4,31.389995 0.63,0.58 1.47,1.03 2.26,0.17 0.01,-0.01 0.95,-0.88 -0.25,-2 -2.52,-2.36 -27.08,-25.929995 -28.41,-27.239995 -3.06,-3.01 -4.51,-7.05 -1.53,-10.3 2.71,-2.96 7.44,-3.44 10.78,-0.04 l 30.18,28.549995 c 0,0 1.1,0.93 2.07,-0.11 z"
       style="fill:#fac036"
       id="path2"
       inkscape:connector-curvature="0" />
    <path
       d="m 11.218648,64.27426 c 0,0 0.88,5.81 6.64,11.19 5.77,5.38 13.179999,7.87 13.179999,7.87"
       style="fill:none;stroke:#444444;stroke-width:4;stroke-linecap:round;stroke-miterlimit:10"
       id="path8"
       inkscape:connector-curvature="0" />
    <path
       d="m 4.518648,78.43426 c 0,0 2.45,4.87 8.5,8.63 6.05,3.76 13.05,4.67 13.05,4.67"
       style="fill:none;stroke:#444444;stroke-width:4;stroke-linecap:round;stroke-miterlimit:10"
       id="path10"
       inkscape:connector-curvature="0" />
    <path
       d="m 111.74865,36.70426 c 0,0 0.39,-5.86 -4.09,-12.349995 -4.48,-6.49 -11.180003,-10.52 -11.180003,-10.52"
       style="fill:none;stroke:#444444;stroke-width:4;stroke-linecap:round;stroke-miterlimit:10"
       id="path12"
       inkscape:connector-curvature="0" />
    <path
       d="m 121.57865,32.52426 c 0,0 0.23,-5.439995 -3.22,-11.679995 -3.45,-6.24 -9.12,-10.44 -9.12,-10.44"
       style="fill:none;stroke:#444444;stroke-width:4;stroke-linecap:round;stroke-miterlimit:10"
       id="path14"
       inkscape:connector-curvature="0" />
  </g>
  <g
     style="display:inline"
     inkscape:label="original copy"
     id="g4507"
     inkscape:groupmode="layer">
    <path
       inkscape:connector-curvature="0"
       id="path4497"
       style="fill:#fac036;stroke-width:0.87719274"
       d="m 82.747065,39.324533 c 0.903509,-0.964913 -0.175438,-1.938596 -0.175438,-1.938596 0,0 -17.175434,-16.210519 -17.947363,-17.263149 -1.078947,-1.482456 -2.77193,-4.657893 0.5,-7.833331 1.359648,-1.324561 4.385963,-3.482455 9.263154,0.526316 1.052632,0.868421 27.666642,26.122795 29.105242,27.596479 0,0 11.35087,11.666663 15.6228,18.728064 1.1842,1.95614 2.43859,4.157895 3.31579,6.728069 0.87719,2.561402 1.48245,5.456139 1.48245,8.50877 0.0351,3.05263 -0.55263,6.219296 -1.64912,9.210523 -1.10526,2.991227 -2.71053,5.7807 -4.5614,8.315786 -0.47369,0.622805 -0.94737,1.254389 -1.45614,1.842109 l -1.40351,1.70175 c -0.99123,1.1842 -2.03509,2.28947 -3.09649,3.350877 -2.12281,2.13158 -4.39473,4.05263 -6.7193,5.7456 -2.33333,1.68422 -4.7456,3.11404 -7.149104,4.2544 -2.403504,1.14036 -4.815784,1.9386 -7.096485,2.42106 -2.27193,0.50877 -4.421051,0.64912 -6.298243,0.57017 -1.877193,-0.0175 -3.482456,-0.39473 -4.763158,-0.70175 -1.280701,-0.35088 -2.236841,-0.72807 -2.86842,-1.02631 -0.631578,-0.28948 -0.964911,-0.44738 -0.964911,-0.44738 v 0 c -1.131579,-0.4035 -2.210526,-0.78947 -3.184211,-1.13159 -2.745612,-0.9649 -5.824559,-2.07895 -8.991225,-3.23684 -1.342104,-0.49122 -1.947367,-0.71929 -1.947367,-0.71929 l 0.02632,0.009 C 50.238303,100.28084 38.334798,95.710663 38.334798,95.710663 36.238308,95.017683 35.510237,92.465058 36.861115,90.587865 40.75585,85.166813 46.440059,83.508919 52.501461,85.4212 l 13.438593,4.903507 c 1.499999,0.692982 3.236841,-1.219298 2.192981,-2.499999 C 64.852334,83.798205 55.808477,75.280664 55.808477,75.280664 52.159355,71.473646 30.133046,49.991196 28.790941,48.5526 26.09796,45.657865 24.711995,42.008742 26.755854,39.228042 c 2.087719,-2.842105 5.315787,-3.631579 8.842103,-0.885965 0.95614,0.745613 23.894729,22.456133 23.894729,22.456133 1.32456,1.263159 3.201753,-0.228069 1.91228,-1.622805 0,0 -28.175429,-27.008765 -29.491218,-28.228064 -3,-2.763152 -3.657895,-7.201748 -1.184211,-9.833325 2.41228,-2.570175 6.368419,-2.508772 9.473681,0.298245 0.982456,0.894737 21.070169,19.921043 29.298238,27.535076 0.552631,0.508772 1.289472,0.903509 1.982454,0.149123 0.0088,-0.0088 0.833334,-0.77193 -0.219297,-1.754386 -2.210526,-2.070175 -23.75438,-22.745603 -24.921046,-23.894726 -2.68421,-2.64035 -3.956139,-6.184208 -1.342105,-9.035084 2.377192,-2.596491 6.526313,-3.017544 9.456138,-0.03509 l 26.473677,25.043848 c 0,0 0.964912,0.815789 1.815788,-0.09649 z" />
    <path
       sodipodi:type="inkscape:offset"
       inkscape:radius="0"
       inkscape:original="M 67.716797 10.552734 C 66.180613 10.756682 65.084121 11.626782 64.404297 12.289062 C 61.132367 15.464501 62.82535 18.640591 63.904297 20.123047 C 64.676226 21.175677 81.851562 37.386719 81.851562 37.386719 C 81.851563 37.386719 82.930853 38.359306 82.027344 39.324219 C 81.176467 40.236497 80.210938 39.421875 80.210938 39.421875 L 53.738281 14.376953 C 50.808457 11.394499 46.658442 11.815618 44.28125 14.412109 C 41.667216 17.262985 42.938837 20.806916 45.623047 23.447266 C 46.789713 24.596389 68.334396 45.271622 70.544922 47.341797 C 71.597554 48.324253 70.772472 49.086903 70.763672 49.095703 C 70.07069 49.850089 69.333882 49.456038 68.78125 48.947266 C 60.553182 41.333233 40.464877 22.306846 39.482422 21.412109 C 36.37716 18.605092 32.422046 18.543106 30.009766 21.113281 C 27.536083 23.744858 28.19336 28.184114 31.193359 30.947266 C 32.509149 32.166565 60.685547 59.175781 60.685547 59.175781 C 61.97502 60.570517 60.097997 62.061987 58.773438 60.798828 C 58.773438 60.798828 35.833093 39.08741 34.876953 38.341797 C 31.350637 35.596183 28.122874 36.386411 26.035156 39.228516 C 23.991297 42.009216 25.377332 45.657999 28.070312 48.552734 C 29.412417 49.99133 51.43877 71.474232 55.087891 75.28125 C 55.087891 75.28125 64.131413 83.797656 67.412109 87.824219 C 68.455968 89.10492 66.720702 91.017201 65.220703 90.324219 L 51.78125 85.421875 C 45.719848 83.509594 40.035359 85.166839 36.140625 90.587891 C 34.789747 92.465084 35.518744 95.017957 37.615234 95.710938 C 37.615234 95.710938 49.504089 100.27496 61.044922 104.52539 L 61.070312 104.53516 C 61.085986 104.54106 61.667665 104.76131 62.992188 105.24609 C 66.158854 106.40398 69.236809 107.51752 71.982422 108.48242 C 72.956106 108.82454 74.03639 109.20978 75.167969 109.61328 C 75.167969 109.61328 75.501234 109.77107 76.132812 110.06055 C 76.764391 110.35879 77.719299 110.73701 79 111.08789 C 80.280702 111.39491 81.88648 111.77156 83.763672 111.78906 C 85.640865 111.86801 87.79057 111.72752 90.0625 111.21875 C 92.343201 110.73629 94.754691 109.93919 97.158203 108.79883 C 99.561705 107.65847 101.97526 106.22719 104.30859 104.54297 C 106.63316 102.85 108.90453 100.93041 111.02734 98.798828 C 112.08875 97.737421 113.13182 96.631466 114.12305 95.447266 L 115.52734 93.746094 C 116.03611 93.158374 116.50872 92.527102 116.98242 91.904297 C 118.83329 89.369211 120.43966 86.579118 121.54492 83.587891 C 122.64141 80.596664 123.22846 77.429583 123.19336 74.376953 C 123.19336 71.324322 122.58813 68.430543 121.71094 65.869141 C 120.83374 63.298967 119.57874 61.096765 118.39453 59.140625 C 114.1226 52.079224 102.77344 40.412109 102.77344 40.412109 C 101.33484 38.938425 74.7206 13.684827 73.667969 12.816406 C 71.229373 10.812021 69.25298 10.348787 67.716797 10.552734 z "
       xlink:href="#path4497-6"
       style="display:inline;fill:#fac036"
       id="path4538"
       inkscape:href="#path4497-6"
       d="m 67.445312,10.552734 c -1.536183,0.203948 -2.632676,1.074048 -3.3125,1.736328 -3.271929,3.175439 -1.578946,6.351529 -0.5,7.833985 0.77193,1.05263 17.947266,17.263672 17.947266,17.263672 0,0 1.07929,0.972587 0.175781,1.9375 -0.850877,0.912278 -1.816406,0.09766 -1.816406,0.09766 L 53.466797,14.376953 c -2.929824,-2.982454 -7.079839,-2.561335 -9.457031,0.03516 -2.614034,2.850876 -1.342414,6.394807 1.341796,9.035157 1.166666,1.149123 22.711349,21.824356 24.921876,23.894531 1.052632,0.982456 0.227549,1.745106 0.21875,1.753906 -0.692982,0.754386 -1.42979,0.360335 -1.982422,-0.148437 -8.228068,-7.614033 -28.31442,-26.64042 -29.296875,-27.535157 -3.105262,-2.807017 -7.06233,-2.869003 -9.47461,-0.298828 -2.473683,2.631577 -1.816405,7.070833 1.183594,9.833985 1.31579,1.219299 29.492187,28.228515 29.492187,28.228515 1.289473,1.394736 -0.587549,2.886206 -1.912109,1.623047 0,0 -22.938391,-21.711418 -23.894531,-22.457031 -3.526316,-2.745614 -6.756032,-1.955386 -8.84375,0.886719 -2.043859,2.7807 -0.657825,6.429483 2.035156,9.324218 1.342105,1.438596 23.368457,22.921498 27.017578,26.728516 0,0 9.045476,8.516406 12.326172,12.542969 1.043859,1.280701 -0.69336,3.192982 -2.193359,2.5 L 51.509766,85.421875 c -6.061402,-1.912281 -11.745891,-0.255036 -15.640625,5.166016 -1.350878,1.877193 -0.621881,4.430066 1.474609,5.123047 0,0 11.888855,4.564022 23.429688,8.814452 l 0.02539,0.01 c 0.01567,0.006 0.597353,0.22615 1.921875,0.71093 3.166666,1.15789 6.244621,2.27143 8.990235,3.23633 0.973683,0.34212 2.053967,0.72736 3.185546,1.13086 0,0 0.333266,0.15779 0.964844,0.44727 0.631579,0.29824 1.586487,0.67646 2.867188,1.02734 1.280702,0.30702 2.88648,0.68367 4.763672,0.70117 1.877192,0.0789 4.026898,-0.0615 6.298828,-0.57031 2.280701,-0.48246 4.692191,-1.27956 7.095703,-2.41992 2.403502,-1.14036 4.817061,-2.57164 7.150391,-4.25586 2.32457,-1.69297 4.59594,-3.61256 6.71875,-5.744142 1.06141,-1.061407 2.10447,-2.167362 3.0957,-3.351562 l 1.4043,-1.701172 c 0.50877,-0.58772 0.98138,-1.218992 1.45508,-1.841797 1.85087,-2.535086 3.45724,-5.325179 4.5625,-8.316406 1.09649,-2.991227 1.68353,-6.158308 1.64844,-9.210938 0,-3.052631 -0.60524,-5.94641 -1.48243,-8.507812 -0.8772,-2.570174 -2.13024,-4.772376 -3.31445,-6.728516 C 113.85307,52.079224 102.50195,40.412109 102.50195,40.412109 101.06335,38.938425 74.449115,13.684827 73.396484,12.816406 70.957888,10.812021 68.981496,10.348787 67.445312,10.552734 Z"
       transform="translate(0.7201094)" />
    <g
       id="g4564"
       transform="matrix(0.8963417,0,0,0.8963417,9.985327,5.8714232)">
      <path
         style="fill:#000000;stroke-width:5.34656239"
         inkscape:connector-curvature="0"
         d="m 69.753405,6.9576455 -53.465622,-0.05347 c -5.881219,0 -10.693125,4.8119055 -10.693125,10.6931235 v 96.238131 c 0,5.88121 4.811906,10.69312 10.693125,10.69312 h 53.465622 c 5.881218,0 10.693125,-4.81191 10.693125,-10.69312 V 17.597303 c 0,-5.881218 -4.811907,-10.6396575 -10.693125,-10.6396575 z m 0,96.1846545 H 16.287783 V 28.290428 h 53.465622 z"
         id="path4495" />
      <rect
         ry="5.0808702"
         y="28.290428"
         x="16.287781"
         height="74.851875"
         width="53.465569"
         id="rect4560"
         style="fill:#ffffff;fill-opacity:1;stroke:none;stroke-width:3.40157485;stroke-miterlimit:4;stroke-dasharray:none;stroke-opacity:1;paint-order:normal" />
    </g>
    <path
       sodipodi:type="inkscape:offset"
       inkscape:radius="1.2033832"
       inkscape:original="M 67.716797 10.552734 C 66.180613 10.756682 65.084121 11.626782 64.404297 12.289062 C 61.132367 15.464501 62.82535 18.640591 63.904297 20.123047 C 64.676226 21.175677 81.851562 37.386719 81.851562 37.386719 C 81.851563 37.386719 82.930853 38.359306 82.027344 39.324219 C 81.176467 40.236497 80.210938 39.421875 80.210938 39.421875 L 53.738281 14.376953 C 50.808457 11.394499 46.658442 11.815618 44.28125 14.412109 C 41.667216 17.262985 42.938837 20.806916 45.623047 23.447266 C 46.789713 24.596389 68.334396 45.271622 70.544922 47.341797 C 71.597554 48.324253 70.772472 49.086903 70.763672 49.095703 C 70.07069 49.850089 69.333882 49.456038 68.78125 48.947266 C 60.553182 41.333233 40.464877 22.306846 39.482422 21.412109 C 36.37716 18.605092 32.422046 18.543106 30.009766 21.113281 C 27.536083 23.744858 28.19336 28.184114 31.193359 30.947266 C 32.509149 32.166565 60.685547 59.175781 60.685547 59.175781 C 61.97502 60.570517 60.097997 62.061987 58.773438 60.798828 C 58.773438 60.798828 35.833093 39.08741 34.876953 38.341797 C 31.350637 35.596183 28.122874 36.386411 26.035156 39.228516 C 23.991297 42.009216 25.377332 45.657999 28.070312 48.552734 C 29.412417 49.99133 51.43877 71.474232 55.087891 75.28125 C 55.087891 75.28125 64.131413 83.797656 67.412109 87.824219 C 68.455968 89.10492 66.720702 91.017201 65.220703 90.324219 L 51.78125 85.421875 C 45.719848 83.509594 40.035359 85.166839 36.140625 90.587891 C 34.789747 92.465084 35.518744 95.017957 37.615234 95.710938 C 37.615234 95.710938 49.504089 100.27496 61.044922 104.52539 L 61.070312 104.53516 C 61.085986 104.54106 61.667665 104.76131 62.992188 105.24609 C 66.158854 106.40398 69.236809 107.51752 71.982422 108.48242 C 72.956106 108.82454 74.03639 109.20978 75.167969 109.61328 C 75.167969 109.61328 75.501234 109.77107 76.132812 110.06055 C 76.764391 110.35879 77.719299 110.73701 79 111.08789 C 80.280702 111.39491 81.88648 111.77156 83.763672 111.78906 C 85.640865 111.86801 87.79057 111.72752 90.0625 111.21875 C 92.343201 110.73629 94.754691 109.93919 97.158203 108.79883 C 99.561705 107.65847 101.97526 106.22719 104.30859 104.54297 C 106.63316 102.85 108.90453 100.93041 111.02734 98.798828 C 112.08875 97.737421 113.13182 96.631466 114.12305 95.447266 L 115.52734 93.746094 C 116.03611 93.158374 116.50872 92.527102 116.98242 91.904297 C 118.83329 89.369211 120.43966 86.579118 121.54492 83.587891 C 122.64141 80.596664 123.22846 77.429583 123.19336 74.376953 C 123.19336 71.324322 122.58813 68.430543 121.71094 65.869141 C 120.83374 63.298967 119.57874 61.096765 118.39453 59.140625 C 114.1226 52.079224 102.77344 40.412109 102.77344 40.412109 C 101.33484 38.938425 74.7206 13.684827 73.667969 12.816406 C 71.229373 10.812021 69.25298 10.348787 67.716797 10.552734 z "
       xlink:href="#path4497-6"
       style="display:inline;fill:#fac036;stroke:#000000;stroke-opacity:1"
       id="path4540"
       inkscape:href="#path4497-6"
       d="m 67.287109,9.359375 c -1.904771,0.2528828 -3.228404,1.322384 -3.99414,2.068359 -1.852523,1.799086 -2.422509,3.84273 -2.238281,5.542969 0.184301,1.700921 1.001605,3.031629 1.605468,3.861328 a 1.2035035,1.2035035 0 0 0 0.002,0.002 c 0.290194,0.395718 0.559834,0.631596 1.111329,1.183594 0.551494,0.551998 1.288565,1.27504 2.15039,2.111328 1.723651,1.672576 3.946043,3.7991 6.142578,5.892578 4.393071,4.186957 8.6875,8.240235 8.6875,8.240235 a 1.2035035,1.2035035 0 0 0 0.02148,0.01953 c 0,0 0.09155,0.107361 0.126953,0.189453 0.0354,0.08209 0.125084,-0.129451 -0.02539,0.03125 a 1.2035035,1.2035035 0 0 0 -0.002,0.002 c -0.148725,0.159457 0.0046,0.06013 -0.04687,0.04687 -0.04886,-0.01259 -0.101714,-0.04374 -0.107422,-0.04687 L 54.326172,13.533203 c -3.367623,-3.428117 -8.398653,-2.996781 -11.203125,0.06641 -1.540574,1.680157 -2.000534,3.762142 -1.607422,5.654297 0.393112,1.892156 1.525921,3.608474 2.992187,5.050782 1.204492,1.186379 18.514056,17.788564 23.070313,22.11914 C 63.382735,42.522668 57.521066,37.01838 51.970703,31.785156 45.798503,25.965626 40.635688,21.07907 40.023438,20.521484 a 1.2035035,1.2035035 0 0 0 -0.0039,-0.002 c -3.475996,-3.142143 -8.289911,-3.286504 -11.158203,-0.230469 -3.009115,3.201186 -2.161903,8.40403 1.246094,11.542969 0.552363,0.511946 8.013773,7.653498 15.220703,14.556641 7.187675,6.884699 14.17264,13.578604 14.212891,13.617187 -0.04234,0.0171 -0.0342,0.08856 -0.208985,-0.07813 a 1.2035035,1.2035035 0 0 0 -0.002,-0.002 c 0,0 -5.736652,-5.429144 -11.591797,-10.951172 -2.927572,-2.761013 -5.885024,-5.545404 -8.171875,-7.6875 -1.143425,-1.071047 -2.117759,-1.982255 -2.839844,-2.65039 -0.722084,-0.668136 -1.062731,-0.997583 -1.378906,-1.244141 -1.947833,-1.516597 -3.984301,-2.156055 -5.867187,-1.894531 -1.882431,0.261461 -3.497992,1.401418 -4.685547,3.017578 -1.247569,1.697335 -1.45017,3.753901 -0.953125,5.638672 0.497044,1.88477 1.628062,3.66215 3.076172,5.21875 0.436428,0.467805 1.998729,2.008267 4.310547,4.285156 2.311817,2.276889 5.306146,5.215595 8.371093,8.228516 6.129895,6.025841 12.577603,12.379919 14.347657,14.226562 a 1.2035035,1.2035035 0 0 0 0.04492,0.04492 c 0,0 9.095442,8.594786 12.216796,12.425781 0.06503,0.07979 0.05364,0.0731 0.04687,0.132813 -0.0068,0.05971 -0.05368,0.183931 -0.154297,0.296875 -0.201226,0.225887 -0.441581,0.314315 -0.648437,0.21875 a 1.2035035,1.2035035 0 0 0 -0.0918,-0.03906 L 51.921875,84.291016 a 1.2035035,1.2035035 0 0 0 -0.05078,-0.01758 c -6.457521,-2.037251 -12.827851,-0.163999 -16.978516,5.613281 -1.771378,2.463586 -0.778928,6.023708 2.074219,6.966797 0.05494,0.02109 11.865917,4.556294 23.390625,8.800784 l 0.0098,0.004 a 1.2035035,1.2035035 0 0 0 0.0078,0.004 c -0.03805,-0.0143 0.60343,0.22871 1.931641,0.71484 3.169166,1.15881 6.252432,2.27259 9.005859,3.24024 0.951299,0.33425 2.011077,0.71231 3.119141,1.10742 0.03309,0.0156 0.327063,0.15377 0.916015,0.42383 0.699859,0.33048 1.716274,0.73077 3.0625,1.09961 a 1.2035035,1.2035035 0 0 0 0.03711,0.01 c 1.281504,0.30721 2.994074,0.71115 5.017578,0.73242 1.969411,0.0811 4.212137,-0.0665 6.585937,-0.59765 h 0.0039 c 2.371341,-0.50272 4.863262,-1.32713 7.347656,-2.50586 2.473938,-1.17378 4.949536,-2.64184 7.339846,-4.36719 a 1.2035035,1.2035035 0 0 0 0.004,-0.004 c 2.37222,-1.72767 4.69113,-3.68629 6.86133,-5.865229 l 0.002,-0.002 c 1.07756,-1.077642 2.14343,-2.21037 3.16406,-3.429688 a 1.2035035,1.2035035 0 0 0 0.006,-0.0059 l 1.38672,-1.679688 0.004,-0.0039 c 0.54498,-0.629957 1.02913,-1.27997 1.49805,-1.896485 a 1.2035035,1.2035035 0 0 0 0.0156,-0.01953 c 1.9033,-2.606889 3.56643,-5.48882 4.71875,-8.607422 a 1.2035035,1.2035035 0 0 0 0,-0.0039 c 1.14228,-3.116138 1.75856,-6.416845 1.72266,-9.630859 -7.9e-4,-3.208761 -0.63553,-6.228993 -1.54688,-8.890625 v -0.002 c -0.92244,-2.702068 -2.22742,-4.984659 -3.42382,-6.960938 -4.45675,-7.366893 -15.78907,-18.945312 -15.78907,-18.945312 a 1.2035035,1.2035035 0 0 0 -0.002,0 c -0.45515,-0.466252 -2.32205,-2.252298 -5.037108,-4.841797 -2.71506,-2.5895 -6.210221,-5.913092 -9.69336,-9.216797 C 85.149674,22.209967 81.678796,18.926185 79.011719,16.412109 77.67818,15.155072 76.544641,14.091278 75.710938,13.3125 74.877234,12.533722 74.437846,12.116155 74.162109,11.888672 a 1.2035035,1.2035035 0 0 0 -0.002,-0.002 C 71.545425,9.7375609 69.19244,9.1064193 67.287109,9.359375 Z"
       transform="translate(-172.09039,7.7918997)" />
    <path
       inkscape:connector-curvature="0"
       id="path4497-6"
       style="display:inline;fill:#fac036;stroke-width:0.87719274"
       d="m 82.026957,39.324533 c 0.903509,-0.964913 -0.175439,-1.938596 -0.175439,-1.938596 0,0 -17.175433,-16.210519 -17.947362,-17.263149 -1.078947,-1.482456 -2.77193,-4.657893 0.5,-7.833331 1.359648,-1.324561 4.385962,-3.482455 9.263154,0.526316 1.052631,0.868421 27.66663,26.122795 29.10523,27.596479 0,0 11.35087,11.666663 15.6228,18.728064 1.18421,1.95614 2.43859,4.157895 3.31579,6.728069 0.87719,2.561402 1.48245,5.456139 1.48245,8.50877 0.0351,3.05263 -0.55263,6.219296 -1.64912,9.210523 -1.10526,2.991227 -2.71052,5.7807 -4.56139,8.315786 -0.4737,0.622805 -0.94738,1.254389 -1.45615,1.842109 l -1.40351,1.70175 c -0.99123,1.1842 -2.03508,2.28947 -3.09649,3.350877 -2.12281,2.13158 -4.39473,4.05263 -6.7193,5.7456 -2.33333,1.68422 -4.745582,3.11404 -7.149084,4.2544 -2.403512,1.14036 -4.815792,1.9386 -7.096493,2.42106 -2.27193,0.50877 -4.421051,0.64912 -6.298244,0.57017 -1.877192,-0.0175 -3.482455,-0.39473 -4.763157,-0.70175 -1.280701,-0.35088 -2.236841,-0.72807 -2.86842,-1.02631 -0.631578,-0.28948 -0.964912,-0.44738 -0.964912,-0.44738 v 0 c -1.131579,-0.4035 -2.210526,-0.78947 -3.18421,-1.13159 -2.745613,-0.9649 -5.824559,-2.07895 -8.991225,-3.23684 -1.342105,-0.49122 -1.947368,-0.71929 -1.947368,-0.71929 l 0.02631,0.009 C 49.51819,100.2809 37.614685,95.710723 37.614685,95.710723 c -2.09649,-0.69298 -2.824561,-3.245605 -1.473683,-5.122798 3.894734,-5.421052 9.578944,-7.078946 15.640346,-5.166665 l 13.438593,4.903507 c 1.499999,0.692982 3.23684,-1.219298 2.192981,-2.499999 C 64.132226,83.798205 55.088368,75.280664 55.088368,75.280664 51.439247,71.473646 29.412938,49.991196 28.070833,48.5526 c -2.692981,-2.894735 -4.078946,-6.543858 -2.035087,-9.324558 2.087718,-2.842105 5.315787,-3.631579 8.842103,-0.885965 0.95614,0.745613 23.894729,22.456133 23.894729,22.456133 1.32456,1.263159 3.201753,-0.228069 1.91228,-1.622805 0,0 -28.175429,-27.008765 -29.491219,-28.228064 -2.999999,-2.763152 -3.657894,-7.201748 -1.184211,-9.833325 2.41228,-2.570175 6.36842,-2.508772 9.473682,0.298245 0.982455,0.894737 21.070169,19.921043 29.298237,27.535076 0.552632,0.508772 1.289473,0.903509 1.982455,0.149123 0.0088,-0.0088 0.833334,-0.77193 -0.219298,-1.754386 -2.210526,-2.070175 -23.754379,-22.745603 -24.921045,-23.894726 -2.68421,-2.64035 -3.956139,-6.184208 -1.342105,-9.035084 2.377192,-2.596491 6.526313,-3.017544 9.456137,-0.03509 l 26.473678,25.043848 c 0,0 0.964911,0.815789 1.815788,-0.09649 z" />
  </g>
  <g
     inkscape:groupmode="layer"
     id="layer4"
     inkscape:label="white offset">
    <path
       sodipodi:type="inkscape:offset"
       inkscape:radius="0.082662918"
       inkscape:original="M 67.716797 10.552734 C 66.180613 10.756682 65.084121 11.626782 64.404297 12.289062 C 61.132367 15.464501 62.82535 18.640591 63.904297 20.123047 C 64.676226 21.175677 81.851562 37.386719 81.851562 37.386719 C 81.851563 37.386719 82.930853 38.359306 82.027344 39.324219 C 81.176467 40.236498 80.210938 39.421875 80.210938 39.421875 L 53.738281 14.376953 C 50.808457 11.394499 46.658442 11.815618 44.28125 14.412109 C 41.667216 17.262985 42.938837 20.806916 45.623047 23.447266 C 46.789713 24.596389 68.334396 45.271622 70.544922 47.341797 C 71.597554 48.324253 70.772472 49.086903 70.763672 49.095703 C 70.07069 49.850089 69.333882 49.456038 68.78125 48.947266 C 60.553182 41.333233 40.464877 22.306846 39.482422 21.412109 C 36.37716 18.605092 32.422046 18.543106 30.009766 21.113281 C 27.536083 23.744858 28.19336 28.184114 31.193359 30.947266 C 32.509149 32.166565 60.685547 59.175781 60.685547 59.175781 C 61.97502 60.570517 60.097997 62.061987 58.773438 60.798828 C 58.773438 60.798828 35.833093 39.08741 34.876953 38.341797 C 31.350637 35.596183 28.122874 36.386411 26.035156 39.228516 C 23.991297 42.009216 25.377332 45.657999 28.070312 48.552734 C 29.412417 49.99133 51.43877 71.474232 55.087891 75.28125 C 55.087891 75.28125 64.131413 83.797656 67.412109 87.824219 C 68.455968 89.10492 66.720702 91.017201 65.220703 90.324219 L 51.78125 85.421875 C 45.719848 83.509594 40.035359 85.166839 36.140625 90.587891 C 34.789747 92.465084 35.518744 95.017957 37.615234 95.710938 C 37.615234 95.710938 49.504089 100.27496 61.044922 104.52539 L 61.070312 104.53516 C 61.085986 104.54106 61.667665 104.76131 62.992188 105.24609 C 66.158854 106.40398 69.236809 107.51752 71.982422 108.48242 C 72.956106 108.82454 74.03639 109.20978 75.167969 109.61328 C 75.167969 109.61328 75.501234 109.77107 76.132812 110.06055 C 76.764391 110.35879 77.719299 110.73701 79 111.08789 C 80.280702 111.39491 81.88648 111.77156 83.763672 111.78906 C 85.640865 111.86801 87.79057 111.72752 90.0625 111.21875 C 92.343201 110.73629 94.754691 109.93919 97.158203 108.79883 C 99.561705 107.65847 101.97526 106.22719 104.30859 104.54297 C 106.63316 102.85 108.90453 100.93041 111.02734 98.798828 C 112.08875 97.737421 113.13182 96.631466 114.12305 95.447266 L 115.52734 93.746094 C 116.03611 93.158374 116.50872 92.527102 116.98242 91.904297 C 118.83329 89.369211 120.43966 86.579118 121.54492 83.587891 C 122.64141 80.596664 123.22846 77.429583 123.19336 74.376953 C 123.19336 71.324322 122.58813 68.430543 121.71094 65.869141 C 120.83374 63.298967 119.57874 61.096765 118.39453 59.140625 C 114.1226 52.079224 102.77344 40.412109 102.77344 40.412109 C 101.33484 38.938425 74.7206 13.684827 73.667969 12.816406 C 71.229373 10.812021 69.25298 10.348787 67.716797 10.552734 z "
       xlink:href="#path4497-6-3"
       style="display:inline;fill:#fac036;stroke-width:0.87719274"
       id="path4527"
       inkscape:href="#path4497-6-3"
       d="m 68.041016,10.425781 c -0.208982,0.0029 -0.41223,0.01901 -0.607422,0.04492 -1.560785,0.207214 -2.67162,1.091846 -3.357422,1.759766 -1.650962,1.602274 -2.057789,3.220579 -1.90625,4.61914 0.151539,1.398561 0.852588,2.574961 1.396484,3.322266 0.109797,0.149723 0.455938,0.508175 1,1.052734 0.544063,0.54456 1.279133,1.26554 2.138672,2.09961 1.719078,1.668138 3.939509,3.792506 6.134766,5.884765 4.390514,4.184519 8.683593,8.238282 8.683594,8.238282 a 0.08267118,0.08267118 0 0 0 0.002,0 c 0,0 0.25771,0.233712 0.40625,0.578125 0.148539,0.344412 0.19473,0.781833 -0.236329,1.242187 -0.40643,0.43576 -0.819097,0.451563 -1.146484,0.367188 -0.323627,-0.08341 -0.54755,-0.269116 -0.552734,-0.273438 l -0.0039,-0.002 -26.466797,-25.041016 -0.002,-0.002 c -2.959795,-3.010861 -7.168214,-2.5889 -9.574219,0.03906 -1.323061,1.442935 -1.667178,3.07557 -1.335938,4.669922 0.331241,1.594351 1.329054,3.151904 2.679688,4.480468 1.175983,1.158301 22.708469,21.821784 24.923828,23.896485 0.51064,0.476597 0.553883,0.873617 0.484375,1.162109 -0.06951,0.288492 -0.263179,0.468256 -0.267578,0.472656 a 0.08267118,0.08267118 0 0 0 -0.002,0.002 c -0.331766,0.361164 -0.651573,0.437888 -0.966797,0.375 -0.315225,-0.06289 -0.627766,-0.278153 -0.898438,-0.527343 C 64.452954,45.08024 57.374027,38.419757 51.201172,32.599609 45.028317,26.779462 39.767119,21.806502 39.267578,21.351562 36.13685,18.521525 32.121339,18.453091 29.677734,21.056641 c -2.510463,2.670704 -1.840525,7.162206 1.1875,9.951171 0.650465,0.602765 8.029723,7.665611 15.238282,14.570313 7.208558,6.904702 14.253906,13.658203 14.253906,13.658203 0.307567,0.33447 0.420331,0.664712 0.40625,0.955078 -0.01414,0.291622 -0.156247,0.547104 -0.376953,0.728516 -0.441413,0.362823 -1.191717,0.425266 -1.828125,-0.181641 0,0 -5.733705,-5.428096 -11.587891,-10.949219 C 44.04361,47.028501 41.085844,44.24589 38.800781,42.105469 37.65825,41.035258 36.683802,40.12618 35.964844,39.460938 35.245886,38.795695 34.791229,38.38108 34.658203,38.277344 32.882359,36.89466 31.169619,36.394238 29.634766,36.607422 c -1.534854,0.213184 -2.883765,1.137768 -3.9375,2.572266 -1.03743,1.411437 -1.2039,3.049751 -0.771485,4.689453 0.432416,1.639701 1.459029,3.285363 2.8125,4.740234 0.342458,0.367078 1.966547,1.974117 4.277344,4.25 2.310797,2.275883 5.303915,5.215322 8.369141,8.228516 6.13045,6.026387 12.550277,12.350397 14.371093,14.25 a 0.08267118,0.08267118 0 0 0 0.0039,0.0039 c 0,0 9.048609,8.522027 12.318359,12.535156 0.247506,0.303663 0.328276,0.638091 0.291016,0.966797 -0.03726,0.328706 -0.195944,0.651433 -0.431641,0.916016 -0.471395,0.529165 -1.240435,0.819488 -1.953125,0.490234 a 0.08267118,0.08267118 0 0 0 -0.0059,-0.0039 L 51.539062,85.34375 a 0.08267118,0.08267118 0 0 0 -0.0039,0 c -6.088612,-1.920865 -11.820107,-0.25021 -15.732422,5.195312 -1.379867,1.917478 -0.632882,4.539826 1.515625,5.25 h -0.0039 c 0,0 11.888123,4.563758 23.429688,8.814458 v -0.002 l 0.02539,0.0117 c 0.01198,0.005 0.5971,0.22607 1.921875,0.71094 3.166838,1.15795 6.246037,2.27124 8.992188,3.23633 0.973414,0.34202 2.053966,0.72736 3.185547,1.13086 0.0054,0.003 0.33031,0.1561 0.957031,0.44336 0.636269,0.30045 1.595657,0.68109 2.880859,1.0332 a 0.08267118,0.08267118 0 0 0 0.002,0 c 1.280117,0.30688 2.893226,0.68502 4.779297,0.70312 1.883953,0.0792 4.040699,-0.0618 6.320313,-0.57226 2.287194,-0.48384 4.703901,-1.28264 7.113281,-2.42578 2.40834,-1.14266 4.826815,-2.57663 7.164065,-4.26367 2.32789,-1.69539 4.60241,-3.61707 6.72851,-5.751958 1.06257,-1.062562 2.10632,-2.17076 3.09961,-3.357422 a 0.08267118,0.08267118 0 0 0 0.002,0 l 1.40234,-1.699219 0.002,-0.002 c 0.51068,-0.590121 0.98414,-1.222007 1.45703,-1.84375 a 0.08267118,0.08267118 0 0 0 0,-0.002 c 1.85447,-2.540018 3.46573,-5.335961 4.57422,-8.335937 1.0997,-2.999979 1.68757,-6.176352 1.65235,-9.240235 0,-3.063557 -0.60674,-5.966726 -1.48633,-8.535156 -0.88031,-2.579288 -2.1372,-4.786588 -3.32227,-6.744141 -4.28462,-7.082386 -15.63476,-18.74414 -15.63476,-18.74414 -0.36621,-0.375142 -2.2939,-2.224089 -5.007816,-4.8125 -2.713919,-2.588411 -6.208879,-5.909767 -9.691406,-9.212891 -3.482526,-3.303124 -6.953449,-6.588793 -9.61914,-9.101563 -1.332846,-1.256384 -2.463473,-2.31903 -3.294922,-3.095703 -0.831449,-0.776672 -1.356566,-1.262184 -1.498047,-1.378906 -2.144358,-1.762538 -3.945334,-2.346648 -5.408203,-2.326172 z" />
    <path
       sodipodi:type="inkscape:offset"
       inkscape:radius="2.3419304"
       inkscape:original="M 67.716797 10.552734 C 66.180613 10.756682 65.084121 11.626782 64.404297 12.289062 C 61.132367 15.464501 62.82535 18.640591 63.904297 20.123047 C 64.676226 21.175677 81.851562 37.386719 81.851562 37.386719 C 81.851563 37.386719 82.930853 38.359306 82.027344 39.324219 C 81.176467 40.236498 80.210938 39.421875 80.210938 39.421875 L 53.738281 14.376953 C 50.808457 11.394499 46.658442 11.815618 44.28125 14.412109 C 41.667216 17.262985 42.938837 20.806916 45.623047 23.447266 C 46.789713 24.596389 68.334396 45.271622 70.544922 47.341797 C 71.597554 48.324253 70.772472 49.086903 70.763672 49.095703 C 70.07069 49.850089 69.333882 49.456038 68.78125 48.947266 C 60.553182 41.333233 40.464877 22.306846 39.482422 21.412109 C 36.37716 18.605092 32.422046 18.543106 30.009766 21.113281 C 27.536083 23.744858 28.19336 28.184114 31.193359 30.947266 C 32.509149 32.166565 60.685547 59.175781 60.685547 59.175781 C 61.97502 60.570517 60.097997 62.061987 58.773438 60.798828 C 58.773438 60.798828 35.833093 39.08741 34.876953 38.341797 C 31.350637 35.596183 28.122874 36.386411 26.035156 39.228516 C 23.991297 42.009216 25.377332 45.657999 28.070312 48.552734 C 29.412417 49.99133 51.43877 71.474232 55.087891 75.28125 C 55.087891 75.28125 64.131413 83.797656 67.412109 87.824219 C 68.455968 89.10492 66.720702 91.017201 65.220703 90.324219 L 51.78125 85.421875 C 45.719848 83.509594 40.035359 85.166839 36.140625 90.587891 C 34.789747 92.465084 35.518744 95.017957 37.615234 95.710938 C 37.615234 95.710938 49.504089 100.27496 61.044922 104.52539 L 61.070312 104.53516 C 61.085986 104.54106 61.667665 104.76131 62.992188 105.24609 C 66.158854 106.40398 69.236809 107.51752 71.982422 108.48242 C 72.956106 108.82454 74.03639 109.20978 75.167969 109.61328 C 75.167969 109.61328 75.501234 109.77107 76.132812 110.06055 C 76.764391 110.35879 77.719299 110.73701 79 111.08789 C 80.280702 111.39491 81.88648 111.77156 83.763672 111.78906 C 85.640865 111.86801 87.79057 111.72752 90.0625 111.21875 C 92.343201 110.73629 94.754691 109.93919 97.158203 108.79883 C 99.561705 107.65847 101.97526 106.22719 104.30859 104.54297 C 106.63316 102.85 108.90453 100.93041 111.02734 98.798828 C 112.08875 97.737421 113.13182 96.631466 114.12305 95.447266 L 115.52734 93.746094 C 116.03611 93.158374 116.50872 92.527102 116.98242 91.904297 C 118.83329 89.369211 120.43966 86.579118 121.54492 83.587891 C 122.64141 80.596664 123.22846 77.429583 123.19336 74.376953 C 123.19336 71.324322 122.58813 68.430543 121.71094 65.869141 C 120.83374 63.298967 119.57874 61.096765 118.39453 59.140625 C 114.1226 52.079224 102.77344 40.412109 102.77344 40.412109 C 101.33484 38.938425 74.7206 13.684827 73.667969 12.816406 C 71.229373 10.812021 69.25298 10.348787 67.716797 10.552734 z "
       xlink:href="#path4497-6-3"
       style="display:inline;fill:#000000;stroke-width:0.87719274"
       id="path4529"
       inkscape:href="#path4497-6-3"
       d="m 67.136719,8.2304688 c -2.251371,0.2988983 -3.787241,1.553712 -4.634766,2.3789062 -2.06086,2.000085 -2.795709,4.476285 -2.578125,6.484375 0.0096,0.08846 0.05217,0.144033 0.06445,0.230469 l -4.912109,-4.648438 0.06055,0.06055 c -3.781833,-3.849768 -9.644785,-3.4109899 -12.853516,0.09375 -1.748504,1.906925 -2.318255,4.42005 -1.880859,6.603516 -3.812864,-3.163512 -9.171389,-3.332969 -12.371094,0.07617 -3.5157,3.740105 -2.489325,9.665677 1.304688,13.160156 0.05869,0.05441 1.69267,1.620318 1.974609,1.888672 -0.664895,-0.08982 -1.333895,-0.280073 -1.986328,-0.189453 -2.236455,0.310633 -4.1236,1.67069 -5.447266,3.472656 -1.461051,1.987781 -1.69942,4.469778 -1.136719,6.603515 0.562702,2.133738 1.799496,4.043178 3.34375,5.703126 a 2.3421646,2.3421646 0 0 0 0.002,0.002 c 0.531893,0.570134 2.030895,2.040449 4.34375,4.318359 2.312854,2.27791 5.306428,5.217826 8.371093,8.230469 6.12933,6.025286 12.605736,12.410284 14.324219,14.203125 a 2.3421646,2.3421646 0 0 0 0.08594,0.08398 c 0,0 6.395761,6.161415 10.167968,10.273438 L 52.3125,83.222656 a 2.3421646,2.3421646 0 0 0 -0.09766,-0.03516 c -6.832297,-2.155487 -13.855241,-0.08111 -18.248047,6.033203 h 0.002 c -2.17219,3.018496 -0.929572,7.532786 2.640625,8.712891 l -0.105469,-0.03711 c 0,0 11.881492,4.561516 23.427735,8.814456 l 0.02539,0.01 c 0.0037,0.001 0.0041,6e-4 0.0078,0.002 a 2.3421646,2.3421646 0 0 0 0.0098,0.004 c -0.08887,-0.0335 0.609707,0.23135 1.941407,0.71875 3.171531,1.15967 6.256758,2.27585 9.017578,3.2461 a 2.3421646,2.3421646 0 0 0 0.002,0 c 0.93327,0.32792 1.976799,0.69936 3.066406,1.08789 0.06513,0.0307 0.315249,0.14882 0.859375,0.39843 0.764459,0.36099 1.839826,0.78216 3.248047,1.16797 a 2.3421646,2.3421646 0 0 0 0.07227,0.0195 c 1.280938,0.30708 3.094303,0.73383 5.251953,0.75977 2.056068,0.0836 4.385431,-0.0675 6.855468,-0.61914 2.460725,-0.52163 5.036337,-1.37471 7.601563,-2.5918 2.540575,-1.2054 5.073365,-2.7084 7.517575,-4.47265 a 2.3421646,2.3421646 0 0 0 0.008,-0.006 c 2.41726,-1.76048 4.78109,-3.75677 6.99609,-5.98047 l 0.002,-0.002 c 1.09349,-1.093552 2.18342,-2.248727 3.23242,-3.501948 a 2.3421646,2.3421646 0 0 0 0.0117,-0.01367 l 1.36914,-1.658203 0.008,-0.0098 c 0.57844,-0.669133 1.07494,-1.337053 1.53906,-1.947265 a 2.3421646,2.3421646 0 0 0 0.0273,-0.03711 c 1.95289,-2.674823 3.67229,-5.645652 4.86914,-8.884765 a 2.3421646,2.3421646 0 0 0 0.002,-0.0059 c 1.18577,-3.234779 1.82592,-6.664217 1.78906,-10.03125 -0.002,-3.356816 -0.66338,-6.49534 -1.60742,-9.251953 -0.96527,-2.827234 -2.31731,-5.188018 -3.52539,-7.183594 -4.6316,-7.655925 -15.94922,-19.148437 -15.94922,-19.148437 a 2.3421646,2.3421646 0 0 0 -0.002,-0.0039 c -0.5455,-0.558812 -2.35018,-2.278536 -5.066402,-4.869141 -2.716219,-2.590605 -6.211551,-5.914455 -9.695312,-9.21875 -3.483762,-3.304295 -6.954562,-6.588113 -9.623047,-9.103516 -1.334243,-1.257701 -2.468695,-2.322598 -3.304688,-3.103515 -0.835993,-0.780917 -1.189435,-1.130698 -1.601562,-1.470703 a 2.3421646,2.3421646 0 0 0 -0.0039,-0.002 C 72.101436,8.7216819 69.391307,7.9311449 67.136719,8.2304688 Z" />
    <path
       inkscape:connector-curvature="0"
       id="path4497-6-3"
       style="display:inline;fill:#fac036;stroke-width:0.87719274"
       d="m 82.026957,39.324534 c 0.903509,-0.964913 -0.175439,-1.938596 -0.175439,-1.938596 0,0 -17.175433,-16.210519 -17.947362,-17.263149 -1.078947,-1.482456 -2.77193,-4.657893 0.5,-7.833331 1.359648,-1.324561 4.385962,-3.4824546 9.263154,0.526316 1.052631,0.868421 27.66663,26.122795 29.10523,27.596479 0,0 11.35087,11.666663 15.6228,18.728064 1.18421,1.95614 2.43859,4.157895 3.31579,6.728069 0.87719,2.561402 1.48245,5.456139 1.48245,8.50877 0.0351,3.05263 -0.55263,6.219296 -1.64912,9.210523 -1.10526,2.991227 -2.71052,5.7807 -4.56139,8.315786 -0.4737,0.622805 -0.94738,1.254389 -1.45615,1.842109 l -1.40351,1.70175 c -0.99123,1.1842 -2.03508,2.28947 -3.09649,3.350877 -2.12281,2.131579 -4.39473,4.052629 -6.7193,5.745599 -2.33333,1.68422 -4.745582,3.11404 -7.149084,4.2544 -2.403512,1.14036 -4.815792,1.9386 -7.096493,2.42106 -2.27193,0.50877 -4.421051,0.64912 -6.298244,0.57017 -1.877192,-0.0175 -3.482455,-0.39473 -4.763157,-0.70175 -1.280701,-0.35088 -2.236841,-0.72807 -2.86842,-1.02631 -0.631578,-0.28948 -0.964912,-0.44738 -0.964912,-0.44738 v 0 c -1.131579,-0.4035 -2.210526,-0.78947 -3.18421,-1.13159 -2.745613,-0.9649 -5.824559,-2.07895 -8.991225,-3.23684 -1.342105,-0.49122 -1.947368,-0.71929 -1.947368,-0.71929 l 0.02631,0.009 C 49.51819,100.2809 37.614685,95.710724 37.614685,95.710724 c -2.09649,-0.69298 -2.824561,-3.245605 -1.473683,-5.122798 3.894734,-5.421052 9.578944,-7.078946 15.640346,-5.166665 l 13.438593,4.903507 C 66.71994,91.01775 68.456781,89.10547 67.412922,87.824769 64.132226,83.798206 55.088368,75.280665 55.088368,75.280665 51.439247,71.473647 29.412938,49.991197 28.070833,48.552601 c -2.692981,-2.894735 -4.078946,-6.543858 -2.035087,-9.324558 2.087718,-2.842105 5.315787,-3.631579 8.842103,-0.885965 0.95614,0.745613 23.894729,22.456133 23.894729,22.456133 1.32456,1.263159 3.201753,-0.228069 1.91228,-1.622805 0,0 -28.175429,-27.008765 -29.491219,-28.228064 -2.999999,-2.763152 -3.657894,-7.201748 -1.184211,-9.833325 2.41228,-2.570175 6.36842,-2.508772 9.473682,0.298245 0.982455,0.894737 21.070169,19.921043 29.298237,27.535076 0.552632,0.508772 1.289473,0.903509 1.982455,0.149123 0.0088,-0.0088 0.833334,-0.77193 -0.219298,-1.754386 C 68.333978,45.2719 46.790125,24.596472 45.623459,23.447349 c -2.68421,-2.64035 -3.956139,-6.184208 -1.342105,-9.035084 2.377192,-2.596491 6.526313,-3.017544 9.456137,-0.03509 l 26.473678,25.043848 c 0,0 0.964911,0.815789 1.815788,-0.09649 z" />
  </g>
  <g
     inkscape:groupmode="layer"
     id="layer2"
     inkscape:label="waves"
     style="display:none"
     sodipodi:insensitive="true">
    <path
       inkscape:connector-curvature="0"
       id="path4503"
       style="display:inline;fill:none;stroke:#9e9e9e;stroke-width:3.96411061;stroke-linecap:round;stroke-miterlimit:10;stroke-opacity:1"
       d="m 108.85227,33.603061 c 0,0 0.3865,-5.807422 -4.0533,-12.239187 -4.4398,-6.431769 -11.079675,-10.42561 -11.079675,-10.42561" />
    <path
       inkscape:connector-curvature="0"
       id="path4505"
       style="display:inline;fill:none;stroke:#9e9e9e;stroke-width:3.96411061;stroke-linecap:round;stroke-miterlimit:10;stroke-opacity:1"
       d="m 118.59408,29.460565 c 0,0 0.22794,-5.391185 -3.19111,-11.575197 -3.41905,-6.184013 -9.03818,-10.3463292 -9.03818,-10.3463292" />
    <path
       d="m 9.2242778,60.925693 c 0,0 0.8721052,5.75787 6.5804242,11.0896 5.71823,5.331728 13.061744,7.799387 13.061744,7.799387"
       style="display:inline;fill:none;stroke:#9e9e9e;stroke-width:3.96411061;stroke-linecap:round;stroke-miterlimit:10;stroke-opacity:1"
       id="path8-7"
       inkscape:connector-curvature="0" />
    <path
       d="m 2.5843923,74.958644 c 0,0 2.4280178,4.826305 8.4237367,8.55257 5.995717,3.726263 12.93291,4.628098 12.93291,4.628098"
       style="display:inline;fill:none;stroke:#9e9e9e;stroke-width:3.96411061;stroke-linecap:round;stroke-miterlimit:10;stroke-opacity:1"
       id="path10-5"
       inkscape:connector-curvature="0" />
  </g>
</svg>
